A streamlined workflow for long-read DNA methylation analysis with NanoMethViz and Bioconductor • LongMod123
…
exon_anno <- get_exons_mm10() %>%
    dplyr::filter(chr == "chr7")
exon_anno

## # A tibble: 60,146 × 7
##    gene_id   chr   strand    start      end transcript_id symbol 
##    <chr>     <chr> <chr>     <int>    <int>         <int> <chr>  
##  1 100009609 chr7  -      84935565 84941088         60883 Vmn2r65
##  2 100009609 chr7  -      84943141 84943264         60883 Vmn2r65
##  3 100009609 chr7  -      84943504 84943722         60883 Vmn2r65
##  4 100009609 chr7  -      84946200 84947000         60883 Vmn2r65
##  5 100009609 chr7  -      84947372 84947651         60883 Vmn2r65
##  6 100009609 chr7  -      84963816 84964115         60883 Vmn2r65
##  7 100009609 chr7  -      84935565 84941088         60884 Vmn2r65
##  8 100009609 chr7  -      84943141 84943264         60884 Vmn2r65
##  9 100009609 chr7  -      84943504 84943722         60884 Vmn2r65
## 10 100009609 chr7  -      84946200 84947000         60884 Vmn2r65
## # ℹ 60,136 more rows
…
Another class of features of interest are CpG islands, which are
regions of the genome that are rich in CpG dinucleotides. CpG islands
are often associated with gene promoters and are predominantly
unmethylated in normal cells (15). We can
use the get_cgi_mm10() function to retrieve CpG island
annotations for the mouse genome (mm10) and filter for chromosome 7. We
can then use the plot_agg_regions() function to visualise
the mean methylation profile across CpG islands on chromosome 7 (Figure
@ref(fig:fig4-cgi-agg)).

cgi_anno <- get_cgi_mm10() %>%
    filter(chr == "chr7")
cgi_anno

## # A tibble: 1,193 × 14
##      bin chr     start     end gene_id  length cpgNum gcNum perCpg perGc obsExp
##    <dbl> <chr>   <dbl>   <dbl> <chr>     <dbl>  <dbl> <dbl>  <dbl> <dbl>  <dbl>
##  1   609 chr7  3181031 3181267 CpG: 22     236     22   147   18.6  62.3   1   
##  2   610 chr7  3303442 3303817 CpG: 28     375     28   249   14.9  66.4   0.69
##  3   610 chr7  3366695 3366942 CpG: 27     247     27   152   21.9  61.5   1.22
##  4   611 chr7  3411983 3412269 CpG: 26     286     26   188   18.2  65.7   0.84
##  5   611 chr7  3414874 3415855 CpG: 87     981     87   518   17.7  52.8   1.28
##  6   611 chr7  3423522 3423834 CpG: 28     312     28   215   17.9  68.9   0.87
##  7   612 chr7  3617298 3617534 CpG: 17     236     17   146   14.4  61.9   0.76
##  8   612 chr7  3629691 3630056 CpG: 32     365     32   195   17.5  53.4   1.24
##  9   612 chr7  3645002 3645963 CpG: 106    961    106   652   22.1  67.8   0.96
## 10   612 chr7  3665238 3665517 CpG: 27     279     27   184   19.4  65.9   0.93
## # ℹ 1,183 more rows
## # ℹ 3 more variables: transcript_id <chr>, strand <chr>, symbol <chr>
…
